G04 #@! TF.GenerationSoftware,KiCad,Pcbnew,5.1.6~rc1+dfsg1-1*
G04 #@! TF.CreationDate,2020-11-03T15:04:55+05:30*
G04 #@! TF.ProjectId,Ultrasonic_Level_Sensor,556c7472-6173-46f6-9e69-635f4c657665,rev?*
G04 #@! TF.SameCoordinates,Original*
G04 #@! TF.FileFunction,Profile,NP*
%FSLAX46Y46*%
G04 Gerber Fmt 4.6, Leading zero omitted, Abs format (unit mm)*
G04 Created by KiCad (PCBNEW 5.1.6~rc1+dfsg1-1) date 2020-11-03 15:04:55*
%MOMM*%
%LPD*%
G01*
G04 APERTURE LIST*
G04 #@! TA.AperFunction,Profile*
%ADD10C,0.120000*%
G04 #@! TD*
G04 APERTURE END LIST*
D10*
X185765440Y-93000000D02*
G75*
G03*
X185765440Y-93000000I-33000000J0D01*
G01*
M02*
