(export (version D)
  (design
    (source /home/jaison/Documents/Jaison/Kattakada_Project/Ultrasonic_Level_Sensor_v1.12/Ultrasonic_Level_Sensor/Ultrasonic_Level_Sensor.sch)
    (date "Mon 14 Sep 2020 02:54:53 PM IST")
    (tool "Eeschema 5.1.6~rc1+dfsg1-1")
    (sheet (number 1) (name /) (tstamps /)
      (title_block
        (title "C1- Ultrasonic Sensor")
        (company ICFOSS)
        (rev 1.1)
        (date 2020-02-25)
        (source Ultrasonic_Level_Sensor.sch)
        (comment (number 1) (value ""))
        (comment (number 2) (value ""))
        (comment (number 3) (value ""))
        (comment (number 4) (value "")))))
  (components
    (comp (ref U1)
      (value RP604K331A)
      (footprint User:DFN-12-1EP_2.7x3mm_Pitch0.5mm)
      (libsource (lib Ultrasonic_Level_Sensor-rescue) (part RP-604-RP-604) (description ""))
      (sheetpath (names /) (tstamps /))
      (tstamp 5E52CC37))
    (comp (ref Q1)
      (value DMG3415U-7)
      (footprint Package_TO_SOT_SMD:TSOT-23)
      (datasheet ~)
      (libsource (lib Device) (part Q_PMOS_GSD) (description "P-MOSFET transistor, gate/source/drain"))
      (sheetpath (names /) (tstamps /))
      (tstamp 5E52E6AA))
    (comp (ref J1)
      (value JST-XH-2.54)
      (footprint Connector_JST:JST_XH_B2B-XH-AM_1x02_P2.50mm_Vertical)
      (datasheet ~)
      (libsource (lib Connector_Generic) (part Conn_02x01) (description "Generic connector, double row, 02x01, this symbol is compatible with counter-clockwise, top-bottom and odd-even numbering schemes., script generated (kicad-library-utils/schlib/autogen/connector/)"))
      (sheetpath (names /) (tstamps /))
      (tstamp 5E52F7DA))
    (comp (ref C4)
      (value 10uF)
      (footprint Capacitor_SMD:C_0805_2012Metric)
      (datasheet ~)
      (libsource (lib Device) (part C_Small) (description "Unpolarized capacitor, small symbol"))
      (sheetpath (names /) (tstamps /))
      (tstamp 5E549E46))
    (comp (ref L1)
      (value 2.2uH)
      (footprint Inductor_SMD:L_1210_3225Metric_Pad1.42x2.65mm_HandSolder)
      (datasheet ~)
      (libsource (lib Device) (part L_Small) (description "Inductor, small symbol"))
      (sheetpath (names /) (tstamps /))
      (tstamp 5E5525C8))
    (comp (ref C12)
      (value 22uF)
      (footprint Capacitor_SMD:C_0805_2012Metric)
      (datasheet ~)
      (libsource (lib Device) (part C_Small) (description "Unpolarized capacitor, small symbol"))
      (sheetpath (names /) (tstamps /))
      (tstamp 5E556470))
    (comp (ref R1)
      (value 10K)
      (footprint Resistor_SMD:R_0603_1608Metric)
      (datasheet ~)
      (libsource (lib Device) (part R_Small) (description "Resistor, small symbol"))
      (sheetpath (names /) (tstamps /))
      (tstamp 5E5664D0))
    (comp (ref R2)
      (value 10K)
      (footprint Resistor_SMD:R_0603_1608Metric)
      (datasheet ~)
      (libsource (lib Device) (part R_Small) (description "Resistor, small symbol"))
      (sheetpath (names /) (tstamps /))
      (tstamp 5E566C42))
    (comp (ref C13)
      (value 100nF)
      (footprint Capacitor_SMD:C_0603_1608Metric)
      (datasheet ~)
      (libsource (lib Device) (part C_Small) (description "Unpolarized capacitor, small symbol"))
      (sheetpath (names /) (tstamps /))
      (tstamp 5E56C635))
    (comp (ref C1)
      (value 10uF)
      (footprint Capacitor_SMD:C_0603_1608Metric)
      (datasheet ~)
      (libsource (lib Device) (part C_Small) (description "Unpolarized capacitor, small symbol"))
      (sheetpath (names /) (tstamps /))
      (tstamp 5E58FB37))
    (comp (ref C5)
      (value 100nF)
      (footprint Capacitor_SMD:C_0603_1608Metric)
      (datasheet ~)
      (libsource (lib Device) (part C_Small) (description "Unpolarized capacitor, small symbol"))
      (sheetpath (names /) (tstamps /))
      (tstamp 5E58FEDD))
    (comp (ref C9)
      (value 10uF)
      (footprint Capacitor_SMD:C_0603_1608Metric)
      (datasheet ~)
      (libsource (lib Device) (part C_Small) (description "Unpolarized capacitor, small symbol"))
      (sheetpath (names /) (tstamps /))
      (tstamp 5E5A1CF7))
    (comp (ref C2)
      (value 10uF)
      (footprint Capacitor_SMD:C_0603_1608Metric)
      (datasheet ~)
      (libsource (lib Device) (part C_Small) (description "Unpolarized capacitor, small symbol"))
      (sheetpath (names /) (tstamps /))
      (tstamp 5E5A8D50))
    (comp (ref C6)
      (value 100nF)
      (footprint Capacitor_SMD:C_0603_1608Metric)
      (datasheet ~)
      (libsource (lib Device) (part C_Small) (description "Unpolarized capacitor, small symbol"))
      (sheetpath (names /) (tstamps /))
      (tstamp 5E5A8D5A))
    (comp (ref C11)
      (value 100nF)
      (footprint Capacitor_SMD:C_0603_1608Metric)
      (datasheet ~)
      (libsource (lib Device) (part C_Small) (description "Unpolarized capacitor, small symbol"))
      (sheetpath (names /) (tstamps /))
      (tstamp 5E5A1D01))
    (comp (ref C10)
      (value 1uF)
      (footprint Capacitor_SMD:C_0603_1608Metric)
      (datasheet ~)
      (libsource (lib Device) (part C_Small) (description "Unpolarized capacitor, small symbol"))
      (sheetpath (names /) (tstamps /))
      (tstamp 5E5D79B7))
    (comp (ref JP1)
      (value SJ_Closed)
      (footprint Jumper:SolderJumper-2_P1.3mm_Bridged_RoundedPad1.0x1.5mm)
      (datasheet ~)
      (libsource (lib Jumper) (part SolderJumper_2_Bridged) (description "Solder Jumper, 2-pole, closed/bridged"))
      (sheetpath (names /) (tstamps /))
      (tstamp 5E5F2D99))
    (comp (ref SW1)
      (value RESET)
      (footprint User:3x6x2.5mm_tact_switch)
      (datasheet ~)
      (libsource (lib Switch) (part SW_Push) (description "Push button switch, generic, two pins"))
      (sheetpath (names /) (tstamps /))
      (tstamp 5E686772))
    (comp (ref C14)
      (value 10uF)
      (footprint Capacitor_SMD:C_0603_1608Metric)
      (datasheet ~)
      (libsource (lib Device) (part C_Small) (description "Unpolarized capacitor, small symbol"))
      (sheetpath (names /) (tstamps /))
      (tstamp 5E6A68AB))
    (comp (ref TP1)
      (value Clock)
      (footprint TestPoint:TestPoint_Pad_D1.5mm)
      (datasheet ~)
      (libsource (lib Connector) (part TestPoint) (description "test point"))
      (sheetpath (names /) (tstamps /))
      (tstamp 5E6C2967))
    (comp (ref R3)
      (value 100K)
      (footprint Resistor_SMD:R_0603_1608Metric)
      (datasheet ~)
      (libsource (lib Device) (part R_Small) (description "Resistor, small symbol"))
      (sheetpath (names /) (tstamps /))
      (tstamp 5E8B05D8))
    (comp (ref L2)
      (value L)
      (footprint Inductor_SMD:L_0402_1005Metric)
      (datasheet ~)
      (libsource (lib Device) (part L_Small) (description "Inductor, small symbol"))
      (sheetpath (names /) (tstamps /))
      (tstamp 5E9CC134))
    (comp (ref L3)
      (value L)
      (footprint Inductor_SMD:L_0402_1005Metric)
      (datasheet ~)
      (libsource (lib Device) (part L_Small) (description "Inductor, small symbol"))
      (sheetpath (names /) (tstamps /))
      (tstamp 5E9CC6B7))
    (comp (ref J5)
      (value SMA/uFL)
      (footprint Connector_Coaxial:SMA_Amphenol_132134-11_Vertical)
      (datasheet " ~")
      (libsource (lib Connector) (part Conn_Coaxial) (description "coaxial connector (BNC, SMA, SMB, SMC, Cinch/RCA, ...)"))
      (sheetpath (names /) (tstamps /))
      (tstamp 5E9F2930))
    (comp (ref R4)
      (value 10K)
      (footprint Resistor_SMD:R_0603_1608Metric)
      (datasheet ~)
      (libsource (lib Device) (part R_Small) (description "Resistor, small symbol"))
      (sheetpath (names /) (tstamps /))
      (tstamp 5E914A95))
    (comp (ref U3)
      (value CMWX1ZZABZ-091)
      (footprint RF_Module:CMWX1ZZABZ)
      (datasheet https://wireless.murata.com/RFM/data/type_abz.pdf)
      (libsource (lib RF_Module) (part CMWX1ZZABZ-091) (description "LoRa/SigFox Module, STM32L072 MCU, muRata CMWX1ZZABZ"))
      (sheetpath (names /) (tstamps /))
      (tstamp 5E521902))
    (comp (ref J8)
      (value Ext_Aref)
      (footprint Connector_PinHeader_1.00mm:PinHeader_1x01_P1.00mm_Vertical)
      (datasheet ~)
      (libsource (lib Connector_Generic) (part Conn_01x01) (description "Generic connector, single row, 01x01, script generated (kicad-library-utils/schlib/autogen/connector/)"))
      (sheetpath (names /) (tstamps /))
      (tstamp 5EC3796D))
    (comp (ref J4)
      (value RST)
      (footprint Connector_JST:JST_PH_B3B-PH-K_1x03_P2.00mm_Vertical)
      (datasheet ~)
      (libsource (lib Connector_Generic) (part Conn_01x03) (description "Generic connector, single row, 01x03, script generated (kicad-library-utils/schlib/autogen/connector/)"))
      (sheetpath (names /) (tstamps /))
      (tstamp 5EC42100))
    (comp (ref J6)
      (value SFT_RST)
      (footprint Connector_JST:JST_PH_B3B-PH-K_1x03_P2.00mm_Vertical)
      (datasheet ~)
      (libsource (lib Connector_Generic) (part Conn_01x03) (description "Generic connector, single row, 01x03, script generated (kicad-library-utils/schlib/autogen/connector/)"))
      (sheetpath (names /) (tstamps /))
      (tstamp 5EC425AB))
    (comp (ref J3)
      (value SWD)
      (footprint Connector_PinHeader_2.54mm:PinHeader_1x05_P2.54mm_Vertical)
      (datasheet ~)
      (libsource (lib Connector_Generic) (part Conn_01x05) (description "Generic connector, single row, 01x05, script generated (kicad-library-utils/schlib/autogen/connector/)"))
      (sheetpath (names /) (tstamps /))
      (tstamp 5E6DD01B))
    (comp (ref J2)
      (value UART_1_Sensor)
      (footprint Connector_JST:JST_PH_B4B-PH-K_1x04_P2.00mm_Vertical)
      (datasheet ~)
      (libsource (lib Connector_Generic) (part Conn_01x04) (description "Generic connector, single row, 01x04, script generated (kicad-library-utils/schlib/autogen/connector/)"))
      (sheetpath (names /) (tstamps /))
      (tstamp 5E62CD0D))
    (comp (ref JP2)
      (value SJ_Closed)
      (footprint Jumper:SolderJumper-2_P1.3mm_Bridged_RoundedPad1.0x1.5mm)
      (datasheet ~)
      (libsource (lib Jumper) (part SolderJumper_2_Bridged) (description "Solder Jumper, 2-pole, closed/bridged"))
      (sheetpath (names /) (tstamps /))
      (tstamp 5E6F24C5))
    (comp (ref C3)
      (value 0R)
      (footprint Capacitor_SMD:C_0402_1005Metric)
      (datasheet ~)
      (libsource (lib Device) (part C_Small) (description "Unpolarized capacitor, small symbol"))
      (sheetpath (names /) (tstamps /))
      (tstamp 5ED17833))
    (comp (ref C15)
      (value 0R)
      (footprint Capacitor_SMD:C_0402_1005Metric)
      (datasheet ~)
      (libsource (lib Device) (part C_Small) (description "Unpolarized capacitor, small symbol"))
      (sheetpath (names /) (tstamps /))
      (tstamp 5E9CB84B))
    (comp (ref TP2)
      (value 3V3)
      (footprint TestPoint:TestPoint_Pad_D1.5mm)
      (datasheet ~)
      (libsource (lib Connector) (part TestPoint) (description "test point"))
      (sheetpath (names /) (tstamps /))
      (tstamp 5ED4FF7B))
    (comp (ref C7)
      (value 100nF)
      (footprint Capacitor_SMD:C_0603_1608Metric)
      (datasheet ~)
      (libsource (lib Device) (part C_Small) (description "Unpolarized capacitor, small symbol"))
      (sheetpath (names /) (tstamps /))
      (tstamp 5ED6B87F))
    (comp (ref R5)
      (value 330)
      (footprint Resistor_SMD:R_0603_1608Metric)
      (datasheet ~)
      (libsource (lib Device) (part R_Small) (description "Resistor, small symbol"))
      (sheetpath (names /) (tstamps /))
      (tstamp 5EDA01B3))
    (comp (ref JP3)
      (value SJ_Open)
      (footprint Jumper:SolderJumper-2_P1.3mm_Open_RoundedPad1.0x1.5mm)
      (datasheet ~)
      (libsource (lib Jumper) (part SolderJumper_2_Open) (description "Solder Jumper, 2-pole, open"))
      (sheetpath (names /) (tstamps /))
      (tstamp 5EE7E6A7))
    (comp (ref JP4)
      (value SJ_Open)
      (footprint Jumper:SolderJumper-2_P1.3mm_Open_RoundedPad1.0x1.5mm)
      (datasheet ~)
      (libsource (lib Jumper) (part SolderJumper_2_Open) (description "Solder Jumper, 2-pole, open"))
      (sheetpath (names /) (tstamps /))
      (tstamp 5EEB9F73))
    (comp (ref J7)
      (value UEXT_Host)
      (footprint Connector_IDC:IDC-Header_2x05_P2.54mm_Vertical)
      (datasheet https://www.olimex.com/Products/Modules/UEXT/resources/UEXT_rev_B.pdf)
      (libsource (lib Connector) (part UEXT_Host) (description "Universal EXTension (UEXT) is a connector layout which includes power and three serial buses: Asynchronous, I2C, and SPI"))
      (sheetpath (names /) (tstamps /))
      (tstamp 5EBCAAC8))
    (comp (ref Q2)
      (value BSS84)
      (footprint Package_TO_SOT_SMD:SOT-23)
      (datasheet http://assets.nexperia.com/documents/data-sheet/BSS84.pdf)
      (libsource (lib Transistor_FET) (part BSS84) (description "-0.13A Id, -50V Vds, P-Channel MOSFET, SOT-23"))
      (sheetpath (names /) (tstamps /))
      (tstamp 5E5896AC))
    (comp (ref D1)
      (value RED)
      (footprint LED_SMD:LED_0603_1608Metric)
      (datasheet ~)
      (libsource (lib Device) (part LED) (description "Light emitting diode"))
      (sheetpath (names /) (tstamps /))
      (tstamp 5E5C3541))
    (comp (ref D2)
      (value GREEN)
      (footprint LED_SMD:LED_0603_1608Metric)
      (datasheet ~)
      (libsource (lib Device) (part LED) (description "Light emitting diode"))
      (sheetpath (names /) (tstamps /))
      (tstamp 5E5C44C3))
    (comp (ref R7)
      (value 330)
      (footprint Resistor_SMD:R_0603_1608Metric)
      (datasheet ~)
      (libsource (lib Device) (part R_Small) (description "Resistor, small symbol"))
      (sheetpath (names /) (tstamps /))
      (tstamp 5E5F9CB3))
    (comp (ref JP5)
      (value Jumper)
      (footprint Connector_PinSocket_2.54mm:PinSocket_1x02_P2.54mm_Vertical)
      (datasheet ~)
      (libsource (lib Device) (part Jumper) (description "Jumper, normally closed"))
      (sheetpath (names /) (tstamps /))
      (tstamp 5E6101DC))
    (comp (ref JP6)
      (value SJ_Closed)
      (footprint Jumper:SolderJumper-2_P1.3mm_Bridged_RoundedPad1.0x1.5mm)
      (datasheet ~)
      (libsource (lib Jumper) (part SolderJumper_2_Bridged) (description "Solder Jumper, 2-pole, closed/bridged"))
      (sheetpath (names /) (tstamps /))
      (tstamp 5E632DF0))
    (comp (ref R6)
      (value 10K)
      (footprint Resistor_SMD:R_0603_1608Metric)
      (datasheet ~)
      (libsource (lib Device) (part R_Small) (description "Resistor, small symbol"))
      (sheetpath (names /) (tstamps /))
      (tstamp 5EDA04A6))
    (comp (ref R8)
      (value 10K)
      (footprint Resistor_SMD:R_0603_1608Metric)
      (datasheet ~)
      (libsource (lib Device) (part R_Small) (description "Resistor, small symbol"))
      (sheetpath (names /) (tstamps /))
      (tstamp 5E5979D3)))
  (libparts
    (libpart (lib Connector) (part Conn_Coaxial)
      (description "coaxial connector (BNC, SMA, SMB, SMC, Cinch/RCA, ...)")
      (docs " ~")
      (footprints
        (fp *BNC*)
        (fp *SMA*)
        (fp *SMB*)
        (fp *SMC*)
        (fp *Cinch*))
      (fields
        (field (name Reference) J)
        (field (name Value) Conn_Coaxial))
      (pins
        (pin (num 1) (name In) (type passive))
        (pin (num 2) (name Ext) (type passive))))
    (libpart (lib Connector) (part TestPoint)
      (description "test point")
      (docs ~)
      (footprints
        (fp Pin*)
        (fp Test*))
      (fields
        (field (name Reference) TP)
        (field (name Value) TestPoint))
      (pins
        (pin (num 1) (name 1) (type passive))))
    (libpart (lib Connector) (part UEXT_Host)
      (description "Universal EXTension (UEXT) is a connector layout which includes power and three serial buses: Asynchronous, I2C, and SPI")
      (docs https://www.olimex.com/Products/Modules/UEXT/resources/UEXT_rev_B.pdf)
      (footprints
        (fp *Connector*:2x05*))
      (fields
        (field (name Reference) J)
        (field (name Value) UEXT_Host))
      (pins
        (pin (num 1) (name 3V3) (type power_in))
        (pin (num 2) (name GND) (type power_in))
        (pin (num 3) (name TXD) (type output))
        (pin (num 4) (name RXD) (type input))
        (pin (num 5) (name SCL) (type output))
        (pin (num 6) (name SDA) (type BiDi))
        (pin (num 7) (name MISO) (type output))
        (pin (num 8) (name MOSI) (type input))
        (pin (num 9) (name SCK) (type output))
        (pin (num 10) (name ~SSEL) (type output))))
    (libpart (lib Connector_Generic) (part Conn_01x01)
      (description "Generic connector, single row, 01x01, script generated (kicad-library-utils/schlib/autogen/connector/)")
      (docs ~)
      (footprints
        (fp Connector*:*_1x??_*))
      (fields
        (field (name Reference) J)
        (field (name Value) Conn_01x01))
      (pins
        (pin (num 1) (name Pin_1) (type passive))))
    (libpart (lib Connector_Generic) (part Conn_01x03)
      (description "Generic connector, single row, 01x03, script generated (kicad-library-utils/schlib/autogen/connector/)")
      (docs ~)
      (footprints
        (fp Connector*:*_1x??_*))
      (fields
        (field (name Reference) J)
        (field (name Value) Conn_01x03))
      (pins
        (pin (num 1) (name Pin_1) (type passive))
        (pin (num 2) (name Pin_2) (type passive))
        (pin (num 3) (name Pin_3) (type passive))))
    (libpart (lib Connector_Generic) (part Conn_01x04)
      (description "Generic connector, single row, 01x04, script generated (kicad-library-utils/schlib/autogen/connector/)")
      (docs ~)
      (footprints
        (fp Connector*:*_1x??_*))
      (fields
        (field (name Reference) J)
        (field (name Value) Conn_01x04))
      (pins
        (pin (num 1) (name Pin_1) (type passive))
        (pin (num 2) (name Pin_2) (type passive))
        (pin (num 3) (name Pin_3) (type passive))
        (pin (num 4) (name Pin_4) (type passive))))
    (libpart (lib Connector_Generic) (part Conn_01x05)
      (description "Generic connector, single row, 01x05, script generated (kicad-library-utils/schlib/autogen/connector/)")
      (docs ~)
      (footprints
        (fp Connector*:*_1x??_*))
      (fields
        (field (name Reference) J)
        (field (name Value) Conn_01x05))
      (pins
        (pin (num 1) (name Pin_1) (type passive))
        (pin (num 2) (name Pin_2) (type passive))
        (pin (num 3) (name Pin_3) (type passive))
        (pin (num 4) (name Pin_4) (type passive))
        (pin (num 5) (name Pin_5) (type passive))))
    (libpart (lib Connector_Generic) (part Conn_02x01)
      (description "Generic connector, double row, 02x01, this symbol is compatible with counter-clockwise, top-bottom and odd-even numbering schemes., script generated (kicad-library-utils/schlib/autogen/connector/)")
      (docs ~)
      (footprints
        (fp Connector*:*_2x??_*))
      (fields
        (field (name Reference) J)
        (field (name Value) Conn_02x01))
      (pins
        (pin (num 1) (name Pin_1) (type passive))
        (pin (num 2) (name Pin_2) (type passive))))
    (libpart (lib Device) (part C_Small)
      (description "Unpolarized capacitor, small symbol")
      (docs ~)
      (footprints
        (fp C_*))
      (fields
        (field (name Reference) C)
        (field (name Value) C_Small))
      (pins
        (pin (num 1) (name ~) (type passive))
        (pin (num 2) (name ~) (type passive))))
    (libpart (lib Device) (part Jumper)
      (description "Jumper, normally closed")
      (docs ~)
      (footprints
        (fp SolderJumper*)
        (fp Jumper*)
        (fp TestPoint*2Pads*)
        (fp TestPoint*Bridge*))
      (fields
        (field (name Reference) JP)
        (field (name Value) Jumper))
      (pins
        (pin (num 1) (name 1) (type passive))
        (pin (num 2) (name 2) (type passive))))
    (libpart (lib Device) (part LED)
      (description "Light emitting diode")
      (docs ~)
      (footprints
        (fp LED*)
        (fp LED_SMD:*)
        (fp LED_THT:*))
      (fields
        (field (name Reference) D)
        (field (name Value) LED))
      (pins
        (pin (num 1) (name K) (type passive))
        (pin (num 2) (name A) (type passive))))
    (libpart (lib Device) (part L_Small)
      (description "Inductor, small symbol")
      (docs ~)
      (footprints
        (fp Choke_*)
        (fp *Coil*)
        (fp Inductor_*)
        (fp L_*))
      (fields
        (field (name Reference) L)
        (field (name Value) L_Small))
      (pins
        (pin (num 1) (name ~) (type passive))
        (pin (num 2) (name ~) (type passive))))
    (libpart (lib Device) (part Q_PMOS_GSD)
      (description "P-MOSFET transistor, gate/source/drain")
      (docs ~)
      (fields
        (field (name Reference) Q)
        (field (name Value) Q_PMOS_GSD))
      (pins
        (pin (num 1) (name G) (type input))
        (pin (num 2) (name S) (type passive))
        (pin (num 3) (name D) (type passive))))
    (libpart (lib Device) (part R_Small)
      (description "Resistor, small symbol")
      (docs ~)
      (footprints
        (fp R_*))
      (fields
        (field (name Reference) R)
        (field (name Value) R_Small))
      (pins
        (pin (num 1) (name ~) (type passive))
        (pin (num 2) (name ~) (type passive))))
    (libpart (lib Jumper) (part SolderJumper_2_Bridged)
      (description "Solder Jumper, 2-pole, closed/bridged")
      (docs ~)
      (footprints
        (fp SolderJumper*Bridged*))
      (fields
        (field (name Reference) JP)
        (field (name Value) SolderJumper_2_Bridged))
      (pins
        (pin (num 1) (name A) (type passive))
        (pin (num 2) (name B) (type passive))))
    (libpart (lib Jumper) (part SolderJumper_2_Open)
      (description "Solder Jumper, 2-pole, open")
      (docs ~)
      (footprints
        (fp SolderJumper*Open*))
      (fields
        (field (name Reference) JP)
        (field (name Value) SolderJumper_2_Open))
      (pins
        (pin (num 1) (name A) (type passive))
        (pin (num 2) (name B) (type passive))))
    (libpart (lib RF_Module) (part CMWX1ZZABZ-078)
      (aliases
        (alias CMWX1ZZABZ-091))
      (description "LoRa/SigFox Module, STM32L082 MCU, muRata CMWX1ZZABZ")
      (docs https://wireless.murata.com/RFM/data/type_abz.pdf)
      (footprints
        (fp CMWX1ZZABZ*))
      (fields
        (field (name Reference) U)
        (field (name Value) CMWX1ZZABZ-078)
        (field (name Footprint) RF_Module:CMWX1ZZABZ))
      (pins
        (pin (num 1) (name PA12/USB_DP) (type BiDi))
        (pin (num 2) (name PA11/USB_DM) (type BiDi))
        (pin (num 3) (name GND) (type power_in))
        (pin (num 4) (name VDD_USB) (type power_in))
        (pin (num 5) (name VDD_MCU) (type power_in))
        (pin (num 6) (name VDD_RF) (type power_in))
        (pin (num 7) (name GND) (type passive))
        (pin (num 8) (name DBG_SX1276_DIO2) (type BiDi))
        (pin (num 9) (name DBG_SX1276_DI03) (type BiDi))
        (pin (num 10) (name SX1276_DIO4) (type BiDi))
        (pin (num 11) (name DBG_SX1276_DIO5) (type BiDi))
        (pin (num 12) (name DBG_SX1276_DIO1) (type BiDi))
        (pin (num 13) (name DBG_SX1276_DIO0) (type BiDi))
        (pin (num 14) (name PB15/SPI2_MOSI) (type BiDi))
        (pin (num 15) (name PB14/SPI2_MISO) (type BiDi))
        (pin (num 16) (name PB13/SPI2_SCK) (type BiDi))
        (pin (num 17) (name PB12/SPI2_NSS) (type BiDi))
        (pin (num 18) (name PA10/USART1_RX) (type BiDi))
        (pin (num 19) (name PA9/USART1_TX) (type BiDi))
        (pin (num 20) (name PA8/MCO) (type BiDi))
        (pin (num 21) (name PA5/ADC5/DAC2) (type BiDi))
        (pin (num 22) (name PA4/ADC4/DAC1) (type BiDi))
        (pin (num 23) (name PA3/ADC3) (type BiDi))
        (pin (num 24) (name PA2/ADC2) (type BiDi))
        (pin (num 25) (name GND) (type passive))
        (pin (num 26) (name ANT) (type passive))
        (pin (num 27) (name GND) (type passive))
        (pin (num 28) (name DBG_CRF1) (type passive))
        (pin (num 29) (name DBG_CRF3) (type passive))
        (pin (num 30) (name DGB_CRF2) (type passive))
        (pin (num 31) (name ~STSAFE_RST) (type passive))
        (pin (num 32) (name VREF+) (type power_in))
        (pin (num 33) (name PA0/WKUP1) (type BiDi))
        (pin (num 34) (name ~MCU_RST) (type input))
        (pin (num 35) (name PB8/I2C1_SCL) (type BiDi))
        (pin (num 36) (name PB9/I2C1_SDA) (type BiDi))
        (pin (num 37) (name PB2/LPTIM1_OUT) (type BiDi))
        (pin (num 38) (name PB7/LPTIM1_IN2) (type BiDi))
        (pin (num 39) (name PB6/LPTIM1_ETR) (type BiDi))
        (pin (num 40) (name PB5/LPTIM1_IN1) (type BiDi))
        (pin (num 41) (name PA13/SWDIO) (type BiDi))
        (pin (num 42) (name PA14/SWCLK) (type BiDi))
        (pin (num 43) (name BOOT0) (type input))
        (pin (num 44) (name GND) (type passive))
        (pin (num 45) (name PH1/OSC_OUT) (type BiDi))
        (pin (num 46) (name PH0/OSC_IN) (type BiDi))
        (pin (num 47) (name TCXO_OUT) (type output))
        (pin (num 48) (name VDD_TCXO) (type power_in))
        (pin (num 49) (name GND) (type passive))
        (pin (num 50) (name GND) (type passive))
        (pin (num 51) (name GND) (type passive))
        (pin (num 52) (name GND) (type passive))
        (pin (num 53) (name GND) (type passive))
        (pin (num 54) (name GND) (type passive))
        (pin (num 55) (name GND) (type passive))
        (pin (num 56) (name GND) (type passive))
        (pin (num 57) (name GND) (type passive))))
    (libpart (lib Switch) (part SW_Push)
      (description "Push button switch, generic, two pins")
      (docs ~)
      (fields
        (field (name Reference) SW)
        (field (name Value) SW_Push))
      (pins
        (pin (num 1) (name 1) (type passive))
        (pin (num 2) (name 2) (type passive))))
    (libpart (lib Transistor_FET) (part TP0610T)
      (aliases
        (alias VP0610T)
        (alias BSS84)
        (alias NTR2101P)
        (alias BSS83P)
        (alias Si2319CDS)
        (alias IRLML6402)
        (alias DMG2301L)
        (alias AO3401A)
        (alias IRLML9301)
        (alias IRLML5203)
        (alias Si2371EDS)
        (alias TSM2301ACX))
      (description "-0.18A Id, -60V Vds, P-Channel MOSFET, SOT-23")
      (docs http://www.vishay.com/docs/70209/70209.pdf)
      (footprints
        (fp SOT?23*))
      (fields
        (field (name Reference) Q)
        (field (name Value) TP0610T)
        (field (name Footprint) Package_TO_SOT_SMD:SOT-23))
      (pins
        (pin (num 1) (name G) (type input))
        (pin (num 2) (name S) (type passive))
        (pin (num 3) (name D) (type passive))))
    (libpart (lib Ultrasonic_Level_Sensor-rescue) (part RP-604-RP-604)
      (footprints
        (fp QSOP*3.9x4.9mm*Pitch0.635mm*))
      (fields
        (field (name Reference) U)
        (field (name Value) RP-604-RP-604)
        (field (name Footprint) "DFN(PLP)2730-12"))
      (pins
        (pin (num 1) (name AVIN) (type power_in))
        (pin (num 2) (name CE) (type input))
        (pin (num 3) (name PGND) (type power_in))
        (pin (num 4) (name PGND) (type power_in))
        (pin (num 5) (name AGND) (type power_in))
        (pin (num 6) (name VFB) (type power_in))
        (pin (num 7) (name VOUT) (type power_out))
        (pin (num 8) (name BOLX) (type BiDi))
        (pin (num 9) (name PGND) (type power_in))
        (pin (num 10) (name PGND) (type power_in))
        (pin (num 11) (name BULX) (type BiDi))
        (pin (num 12) (name PVIN) (type power_in))
        (pin (num 13) (name GND) (type power_out)))))
  (libraries
    (library (logical Connector)
      (uri /usr/share/kicad/library/Connector.lib))
    (library (logical Connector_Generic)
      (uri /usr/share/kicad/library/Connector_Generic.lib))
    (library (logical Device)
      (uri /usr/share/kicad/library/Device.lib))
    (library (logical Jumper)
      (uri /usr/share/kicad/library/Jumper.lib))
    (library (logical RF_Module)
      (uri /usr/share/kicad/library/RF_Module.lib))
    (library (logical Switch)
      (uri /usr/share/kicad/library/Switch.lib))
    (library (logical Transistor_FET)
      (uri /usr/share/kicad/library/Transistor_FET.lib))
    (library (logical Ultrasonic_Level_Sensor-rescue)
      (uri /home/jaison/Documents/Jaison/Kattakada_Project/Ultrasonic_Level_Sensor_v1.12/Ultrasonic_Level_Sensor/Ultrasonic_Level_Sensor-rescue.lib)))
  (nets
    (net (code 1) (name "Net-(U3-Pad13)")
      (node (ref U3) (pin 13)))
    (net (code 2) (name "Net-(U3-Pad12)")
      (node (ref U3) (pin 12)))
    (net (code 3) (name "Net-(U3-Pad8)")
      (node (ref U3) (pin 8)))
    (net (code 4) (name "Net-(U3-Pad9)")
      (node (ref U3) (pin 9)))
    (net (code 5) (name "Net-(U3-Pad10)")
      (node (ref U3) (pin 10)))
    (net (code 6) (name "Net-(U3-Pad11)")
      (node (ref U3) (pin 11)))
    (net (code 7) (name GND)
      (node (ref J1) (pin 1))
      (node (ref Q1) (pin 1))
      (node (ref U1) (pin 9))
      (node (ref U1) (pin 5))
      (node (ref U1) (pin 4))
      (node (ref U3) (pin 49))
      (node (ref U3) (pin 3))
      (node (ref U3) (pin 53))
      (node (ref U3) (pin 44))
      (node (ref U3) (pin 52))
      (node (ref U3) (pin 51))
      (node (ref U3) (pin 50))
      (node (ref U1) (pin 10))
      (node (ref U1) (pin 13))
      (node (ref U1) (pin 3))
      (node (ref C12) (pin 2))
      (node (ref R5) (pin 2))
      (node (ref J3) (pin 3))
      (node (ref J2) (pin 2))
      (node (ref J7) (pin 2))
      (node (ref C13) (pin 2))
      (node (ref R7) (pin 2))
      (node (ref C5) (pin 2))
      (node (ref C9) (pin 2))
      (node (ref C1) (pin 2))
      (node (ref R2) (pin 2))
      (node (ref U3) (pin 54))
      (node (ref J4) (pin 2))
      (node (ref C6) (pin 2))
      (node (ref C2) (pin 2))
      (node (ref J6) (pin 2))
      (node (ref C14) (pin 2))
      (node (ref SW1) (pin 1))
      (node (ref U3) (pin 55))
      (node (ref U3) (pin 56))
      (node (ref U3) (pin 57))
      (node (ref U3) (pin 7))
      (node (ref U3) (pin 27))
      (node (ref C4) (pin 2))
      (node (ref C11) (pin 2))
      (node (ref J5) (pin 2))
      (node (ref U3) (pin 25))
      (node (ref C10) (pin 2))
      (node (ref R4) (pin 2))
      (node (ref L2) (pin 2))
      (node (ref L3) (pin 2)))
    (net (code 8) (name "Net-(U3-Pad38)")
      (node (ref U3) (pin 38)))
    (net (code 9) (name "Net-(U3-Pad39)")
      (node (ref U3) (pin 39)))
    (net (code 10) (name /VDD_TCXO)
      (node (ref U3) (pin 48))
      (node (ref U3) (pin 1)))
    (net (code 11) (name /AREF)
      (node (ref JP1) (pin 2))
      (node (ref U3) (pin 32))
      (node (ref J8) (pin 1)))
    (net (code 12) (name /MOSI)
      (node (ref U3) (pin 14))
      (node (ref J7) (pin 8)))
    (net (code 13) (name /SFT_RST)
      (node (ref U3) (pin 33))
      (node (ref J6) (pin 3)))
    (net (code 14) (name +3V3)
      (node (ref C5) (pin 1))
      (node (ref C1) (pin 1))
      (node (ref U3) (pin 4))
      (node (ref U1) (pin 7))
      (node (ref U1) (pin 6))
      (node (ref U3) (pin 5))
      (node (ref C12) (pin 1))
      (node (ref C11) (pin 1))
      (node (ref C9) (pin 1))
      (node (ref C6) (pin 1))
      (node (ref J6) (pin 1))
      (node (ref C2) (pin 1))
      (node (ref U3) (pin 6))
      (node (ref J4) (pin 1))
      (node (ref JP1) (pin 1))
      (node (ref C10) (pin 1))
      (node (ref R6) (pin 2))
      (node (ref R8) (pin 2))
      (node (ref J2) (pin 1))
      (node (ref JP2) (pin 1))
      (node (ref J7) (pin 1))
      (node (ref TP2) (pin 1))
      (node (ref JP5) (pin 1)))
    (net (code 15) (name /BATV)
      (node (ref U3) (pin 22))
      (node (ref C13) (pin 1))
      (node (ref R2) (pin 1))
      (node (ref R1) (pin 2)))
    (net (code 16) (name /MISO)
      (node (ref U3) (pin 15))
      (node (ref J7) (pin 7)))
    (net (code 17) (name /SCK)
      (node (ref U3) (pin 16))
      (node (ref J7) (pin 9)))
    (net (code 18) (name /NSS)
      (node (ref U3) (pin 17))
      (node (ref J7) (pin 10)))
    (net (code 19) (name /SDA)
      (node (ref U3) (pin 36))
      (node (ref J7) (pin 6)))
    (net (code 20) (name /SCL)
      (node (ref U3) (pin 35))
      (node (ref J7) (pin 5)))
    (net (code 21) (name "Net-(U3-Pad21)")
      (node (ref U3) (pin 21)))
    (net (code 22) (name "Net-(U3-Pad20)")
      (node (ref U3) (pin 20)))
    (net (code 23) (name "Net-(U3-Pad2)")
      (node (ref U3) (pin 2)))
    (net (code 24) (name "Net-(U3-Pad28)")
      (node (ref U3) (pin 28)))
    (net (code 25) (name "Net-(U3-Pad30)")
      (node (ref U3) (pin 30)))
    (net (code 26) (name "Net-(U3-Pad29)")
      (node (ref U3) (pin 29)))
    (net (code 27) (name /LED_E)
      (node (ref JP6) (pin 1))
      (node (ref U3) (pin 40)))
    (net (code 28) (name "Net-(TP1-Pad1)")
      (node (ref TP1) (pin 1))
      (node (ref U3) (pin 47))
      (node (ref U3) (pin 46)))
    (net (code 29) (name "Net-(U3-Pad45)")
      (node (ref U3) (pin 45)))
    (net (code 30) (name "Net-(U3-Pad31)")
      (node (ref U3) (pin 31)))
    (net (code 31) (name "Net-(D2-Pad2)")
      (node (ref JP6) (pin 2))
      (node (ref D2) (pin 2)))
    (net (code 32) (name "Net-(D2-Pad1)")
      (node (ref R7) (pin 1))
      (node (ref D2) (pin 1)))
    (net (code 33) (name "Net-(D1-Pad2)")
      (node (ref D1) (pin 2))
      (node (ref JP5) (pin 2)))
    (net (code 34) (name "Net-(D1-Pad1)")
      (node (ref D1) (pin 1))
      (node (ref R5) (pin 1)))
    (net (code 35) (name /UART_H_RX)
      (node (ref U3) (pin 23))
      (node (ref J7) (pin 4))
      (node (ref JP3) (pin 2)))
    (net (code 36) (name /UART_H_TX)
      (node (ref J7) (pin 3))
      (node (ref U3) (pin 24))
      (node (ref JP4) (pin 1)))
    (net (code 37) (name "Net-(JP4-Pad2)")
      (node (ref JP4) (pin 2))
      (node (ref R6) (pin 1)))
    (net (code 38) (name "Net-(JP3-Pad1)")
      (node (ref JP3) (pin 1))
      (node (ref R8) (pin 1)))
    (net (code 39) (name /UART_TX)
      (node (ref J2) (pin 3))
      (node (ref U3) (pin 19)))
    (net (code 40) (name /SWDIO)
      (node (ref U3) (pin 41))
      (node (ref J3) (pin 4)))
    (net (code 41) (name /SWCLK)
      (node (ref U3) (pin 42))
      (node (ref J3) (pin 2)))
    (net (code 42) (name "Net-(J3-Pad1)")
      (node (ref J3) (pin 1))
      (node (ref JP2) (pin 2)))
    (net (code 43) (name /UART_RX)
      (node (ref J2) (pin 4))
      (node (ref U3) (pin 18)))
    (net (code 44) (name /MCU_RST)
      (node (ref J3) (pin 5))
      (node (ref SW1) (pin 2))
      (node (ref C14) (pin 1))
      (node (ref J4) (pin 3))
      (node (ref U3) (pin 34)))
    (net (code 45) (name /BAT_E)
      (node (ref C7) (pin 1))
      (node (ref U3) (pin 37)))
    (net (code 46) (name "Net-(C7-Pad2)")
      (node (ref R3) (pin 2))
      (node (ref C7) (pin 2))
      (node (ref Q2) (pin 1)))
    (net (code 47) (name /ANT)
      (node (ref U3) (pin 26))
      (node (ref C3) (pin 2)))
    (net (code 48) (name "Net-(C15-Pad2)")
      (node (ref C3) (pin 1))
      (node (ref L2) (pin 1))
      (node (ref C15) (pin 2)))
    (net (code 49) (name "Net-(Q2-Pad3)")
      (node (ref Q2) (pin 3))
      (node (ref R1) (pin 1)))
    (net (code 50) (name "Net-(L1-Pad2)")
      (node (ref L1) (pin 2))
      (node (ref U1) (pin 8)))
    (net (code 51) (name "Net-(L1-Pad1)")
      (node (ref U1) (pin 11))
      (node (ref L1) (pin 1)))
    (net (code 52) (name /BAT+)
      (node (ref U1) (pin 12))
      (node (ref U1) (pin 1))
      (node (ref R3) (pin 1))
      (node (ref U1) (pin 2))
      (node (ref Q2) (pin 2))
      (node (ref C4) (pin 1))
      (node (ref Q1) (pin 2)))
    (net (code 53) (name /Vin)
      (node (ref J1) (pin 2))
      (node (ref Q1) (pin 3)))
    (net (code 54) (name "Net-(C15-Pad1)")
      (node (ref L3) (pin 1))
      (node (ref C15) (pin 1))
      (node (ref J5) (pin 1)))
    (net (code 55) (name "Net-(R4-Pad1)")
      (node (ref U3) (pin 43))
      (node (ref R4) (pin 1)))))